<?xml version="1.0" encoding="UTF-8" standalone="no"?>
<svg
   xmlns:dc="http://purl.org/dc/elements/1.1/"
   xmlns:cc="http://creativecommons.org/ns#"
   xmlns:rdf="http://www.w3.org/1999/02/22-rdf-syntax-ns#"
   xmlns:svg="http://www.w3.org/2000/svg"
   xmlns="http://www.w3.org/2000/svg"
   xmlns:sodipodi="http://sodipodi.sourceforge.net/DTD/sodipodi-0.dtd"
   xmlns:inkscape="http://www.inkscape.org/namespaces/inkscape"
   version="1.1"
   id="svg2"
   xml:space="preserve"
   width="3743.2131"
   height="2173.1919"
   viewBox="0 0 3743.2131 2173.1919"
   sodipodi:docname="6677.svg"
   inkscape:version="0.92.4 (5da689c313, 2019-01-14)"><metadata
     id="metadata8"><rdf:RDF><cc:Work
         rdf:about=""><dc:format>image/svg+xml</dc:format><dc:type
           rdf:resource="http://purl.org/dc/dcmitype/StillImage" /><dc:title></dc:title></cc:Work></rdf:RDF></metadata><defs
     id="defs6" /><sodipodi:namedview
     pagecolor="#ffffff"
     bordercolor="#666666"
     borderopacity="1"
     objecttolerance="10"
     gridtolerance="10"
     guidetolerance="10"
     inkscape:pageopacity="0"
     inkscape:pageshadow="2"
     inkscape:window-width="1920"
     inkscape:window-height="1013"
     id="namedview4"
     showgrid="false"
     inkscape:zoom="0.15375"
     inkscape:cx="3866.07"
     inkscape:cy="387.34816"
     inkscape:window-x="-9"
     inkscape:window-y="-9"
     inkscape:window-maximized="1"
     inkscape:current-layer="g12" /><g
     id="g10"
     inkscape:groupmode="layer"
     inkscape:label="ink_ext_XXXXXX"
     transform="matrix(1.3333333,0,0,-1.3333333,-290.10666,2421.832)"><g
       id="g12"
       transform="scale(0.1)"><path
         d="m 3877.75,1900.6 c 0,0 -3276.262,3559.6 -554.07,7413.5 2415.3,3419.3 4124.13,1599.4 6436.24,4979.1 5537.08,8094 19589.78,2092.5 17728.58,-5207.6 -900.7,-3532.8 2741.1,-3661.2 885.5,-7192.5 l -24496.25,7.5"
         style="fill:#ebf3fa;fill-opacity:1;fill-rule:nonzero;stroke:none"
         id="path16"
         inkscape:connector-curvature="0" /><path
         d="m 21817.8,2568.4 c -12.8,180.9 3.3,298.6 3.3,298.6 v 0 c 29.1,609.9 -185.5,1026.7 -185.5,1026.7 0,0 -1182.4,76.2 -1086.3,993.1 0,0 140,601.8 459.6,892.1 0,0 288.7,-1084.9 498.5,-1084.9 6.4,0 12.7,1 18.9,3.1 210.9,70.3 -434.2,1259.2 -434.2,1259.2 0,0 756.3,942.4 1159.7,1089.5 0,0 -105.9,-1211.3 48.7,-1211.2 7,0 14.6,2.5 22.7,7.7 187.1,120 371.3,1491.6 371.3,1491.6 0,0 476,346.6 909.5,346.6 168.5,0 330.6,-52.4 455.7,-197.8 447.1,-519.6 328.8,-942.9 197.4,-1051.6 -131.4,-108.6 -1094.8,-554.2 -1010.5,-666.6 21.9,-29.3 88.2,-43.4 179.7,-43.4 260.7,0 726.2,115.1 953.5,325.6 0,0 72,-1172.6 -474,-1372.7 -173,-63.4 -322.8,-82 -457.5,-82 -96.2,0 -184.7,9.5 -268.4,19 -83.6,9.5 -162.4,19 -239.3,19 -78.5,0 -154.9,-9.9 -232.4,-39.9 -335.2,-129.8 -529.8,-329.8 -326.5,-339.5 3,-0.2 6.1,-0.2 9.3,-0.2 90.7,0 237.6,58 404.4,115.9 166.8,58 353.5,116 523.8,116 52.7,0 103.8,-5.5 152.2,-18.3 367.3,-97.1 644.1,-132.8 206.8,-464.2 -323.7,-245.3 -900.8,-503 -1321.9,-503 -147.9,0 -276.6,31.8 -368.2,107.1 v 0 c -64.5,-94.9 -79.6,-407.9 -81.4,-643.3 v -0.4 c 2.3,-38.8 2.8,-93.8 0.8,-169.4 v -0.2 -0.1 c 0.6,-33.2 1.2,-60.4 1.8,-79.4 l 0.1,-1.3 v -0.6 c 2,-30.1 5.4,-60.9 10.2,-92.1 l -101.8,-48.7 m 126.2,1071.8 c 25.3,-25.8 44.1,-36.3 44.1,-36.3 -15.4,12.7 -30,24.7 -44.1,36.3"
         style="fill:#cde0fb;fill-opacity:1;fill-rule:nonzero;stroke:none"
         id="path18"
         inkscape:connector-curvature="0" /><path
         d="m 7222.53,8981 c 117.79,1145.8 2025.42,1105.6 2025.42,1105.6 0,0 1571.15,-1714.6 1944.35,-1700.5 373.2,14.1 -1057,1728.3 -1057,1728.3 697.4,184.4 2645.3,-389 2645.3,-389 0,0 251.9,-2258.9 610.2,-2153.4 358.2,105.5 -325.2,1988.7 -325.2,1988.7 719.4,-93.6 1490.3,-789 1490.3,-789 1013.1,-1172.2 -544.4,-2412.5 -544.4,-2412.5 0,0 104.2,-781 730,-1594 v 0 c 0,0 135.3,-146.9 291.1,-408.7 l -186.9,-30.5 c -23.5,47.6 -48.2,93.3 -74.5,136.8 l -0.5,0.8 -1.1,1.9 c -17.6,26.8 -42.7,64.8 -73.8,111.2 l -0.1,0.2 -0.2,0.2 c -75.4,102.5 -127.5,178.7 -161.6,234.4 l -0.3,0.5 c -228.6,323 -549.9,740 -730,809.1 0,0 15.9,32.5 26,92.3 -8.3,-29.4 -16.9,-60.1 -26,-92.3 -207.9,-738.1 -1789.4,-1114 -2710.8,-1076.9 -921.3,37.2 -573.9,352.1 -160.5,838.7 413.3,486.6 1436.7,543.5 1707.7,752.1 271,208.5 -189.5,297.6 -776.4,154.7 -586.8,-142.9 -786.8,-785.8 -1731.9,-1034.2 -945.18,-248.4 -1971.9,1437.9 -1971.9,1437.9 696.55,-97.4 1825.42,462.7 1833.77,698.7 8.33,236.1 -1748.06,-74.5 -2033.58,-50.8 -285.52,23.8 -855.24,493.9 -737.46,1639.7"
         style="fill:#dfebfa;fill-opacity:1;fill-rule:nonzero;stroke:none"
         id="path20"
         inkscape:connector-curvature="0" /><path
         d="m 20895.6,15112.7 c -852.5,674.1 -2080.3,-642.7 -2080.3,-642.7 0,0 126.2,-2190.8 -128.8,-2434 -255.1,-243.2 -473.7,1852 -473.7,1852 -583.6,-350.4 -1477.1,-2045.3 -1477.1,-2045.3 0,0 1362.2,-1656.4 1055.2,-1829.3 -307.1,-173 -1131.4,1528.2 -1131.4,1528.2 -409.9,-548.2 -446.6,-1527.2 -446.6,-1527.2 126.4,-1456.4 1990,-1218.8 1990,-1218.8 0,0 459.7,-584.2 598,-1542.4 v 0 c 0,0 10.4,-188.2 84.9,-465.8 l 143.7,106.4 c -16.8,47.2 -31.4,94 -43.6,140.3 l -0.2,0.9 -0.5,2 c -6.6,29.5 -15.8,71.5 -26.7,123.1 v 0.2 l -0.1,0.2 c -19.7,118.4 -37,203.9 -52.2,263.6 l -0.2,0.5 c -68.1,367.1 -138.8,858.8 -67,1026.1 0,0 -32.5,10.6 -79.6,43.1 25.4,-13.8 51.9,-28.1 79.6,-43.1 636,-345 1930.7,477.5 2511.7,1125.2 581,647.7 139.4,619.9 -461.7,660.4 -601,40.5 -1312.7,-614.4 -1632.1,-660.5 -319.4,-46 -76.7,324 406,627 482.8,303 1049.2,15.3 1839,491.2 789.8,475.9 324.6,2279.8 324.6,2279.8 -392.4,-535.3 -1513.9,-930.4 -1679.1,-780.8 -165.1,149.7 1200.5,1133.4 1372.2,1342.2 171.8,208.7 228.6,903.4 -624,1577.5"
         style="fill:#dfebfa;fill-opacity:1;fill-rule:nonzero;stroke:none"
         id="path22"
         inkscape:connector-curvature="0" /><path
         d="m 11237.6,3577.9 c -24.1,495.6 790.9,602.1 790.9,602.1 0,0 780.2,-628.3 938.2,-598.1 158,30.2 -562.2,667.5 -562.2,667.5 285.1,123.7 1151.7,5.8 1151.7,5.8 0,0 253.7,-945.6 399.4,-877.5 145.7,68.2 -267.3,825.8 -267.3,825.8 312.4,6.8 685.7,-239.4 685.7,-239.4 507.4,-433.5 -75.5,-1062.6 -75.5,-1062.6 0,0 95,-325.8 414.2,-631.4 v -0.1 c 0,0 67.1,-53.7 150.5,-155.1 l -77.7,-25.1 c -13,18.7 -26.5,36.6 -40.5,53.4 l -0.3,0.3 -0.6,0.7 c -9.2,10.3 -22.4,24.9 -38.6,42.6 l -0.1,0.1 h -0.1 c -38.7,38.8 -65.9,67.9 -84,89.4 l -0.2,0.2 c -118.2,122.7 -282.1,279.5 -363.3,297.2 0,0 4.7,14.9 5.1,41 -1.6,-13.1 -3.3,-26.7 -5.1,-41 -40.7,-327.8 -689.7,-590.3 -1084.5,-634.2 -394.8,-43.9 -267.2,112.7 -122.7,346.7 144.4,234 576.5,324.5 678.4,430.9 101.9,106.4 -99.9,114.5 -340.6,15.6 -240.6,-98.9 -284.1,-385.6 -670.5,-552.7 -386.4,-167 -932.9,484.5 -932.9,484.5 303,3.7 747.4,315.4 735.6,416.5 -11.7,101 -739.5,-145.1 -862.6,-153.5 -123.2,-8.4 -396.2,154.9 -420.4,650.4"
         style="fill:#d9e8fa;fill-opacity:1;fill-rule:nonzero;stroke:none"
         id="path24"
         inkscape:connector-curvature="0" /><path
         d="m 12308.6,11994.4 c -321.6,-165.3 -853.5,-314.7 -1041.5,-738.5 -66.6,-150.2 -30.8,-676.7 194.8,-646 124.1,17 159.8,183.5 166.8,329.9 7,145.3 95.9,274.1 227.9,335.2 l 1468,643.9 -276.3,568.1 c 0,0 -598.5,-420.1 -739.7,-492.6"
         style="fill:#ed7d2b;fill-opacity:1;fill-rule:nonzero;stroke:none"
         id="path26"
         inkscape:connector-curvature="0" /><path
         d="m 26861.4,1932.1 h -8888.8 c 0,-106.2 -1599.4,0 -1599.4,0 0,0 112.7,547 379.3,700.9 60.3,34.8 504.5,-71.3 613.3,-66.6 -46.1,28.8 -986.9,320.5 -776,1759.6 l -502.2,-2320 c -6.9,-42.7 -43.7,-73.9 -86.9,-73.9 h -1967.9 c -42.5,0 -78.8,30.1 -86.6,71.8 -29.5,156.4 -78.2,528.2 76.9,717.3 122.3,149 507.3,115.4 787.1,66.9 62.8,-10.8 120.3,-22.4 168.4,-32.9 64.6,-14 121.3,45.3 104,109.3 0,0 -146.3,429.7 -412.6,1026.9 -266.5,597.2 -652.9,1362.1 -1133.5,2032.5 -96.3,134.2 -196.2,264.7 -299.7,389.3 -371.9,447.2 -623.8,1522.1 -298.4,1996.7 42.7,62.1 234.5,267.2 165.5,236.9 -141.8,-62.7 -244.2,-166 -314.3,-262.3 -49,-67.4 -156.1,-34.2 -158.9,49.3 -39.2,1120.9 807.5,2078.9 1139.6,2567.5 108.2,159.3 161.8,268.7 112.3,317.7 -213.5,212.3 -1157,-325.9 -1583.1,-310.7 -252.4,8.8 -444,97.8 -558.1,168.6 -25.8,16.1 -39.4,41.8 -41.3,68.2 -2.4,33.2 13.5,67.4 47.3,84.9 244.9,127.2 614.9,283.3 907.2,494.2 147.1,105.9 278.9,292.2 355.6,454.4 58,123.2 38.1,273.6 38.1,273.6 -330.4,-282.2 -766.3,-514.8 -1139,-641.9 -248.2,-84.6 -468.4,-122.4 -610.6,-97 -366.6,65.5 -597.5,402.3 -727.6,676.3 -56.7,119.4 -94.1,226.8 -115.2,294.7 -13.3,42.7 7.4,88.2 48,106.5 59.6,26.8 154,69.4 269.8,122.7 536.9,246.9 1132.5,442.5 1239,613.2 36.5,58.5 70.1,123.4 103.5,193 l 0.4,0.7 c 159.2,332.4 314,770.4 760.2,1124.1 693.1,549.3 1399.7,654.2 1694.6,673 90.5,5.9 142.2,3.7 142.9,3.7 459.6,18.3 800.7,-49.8 1054.9,-182 h 0.2 c 985,-512 664.6,-1984.7 871,-3109.4 8,-43.8 16.8,-87.1 26.6,-129.7 84.9,-371.9 1170.4,-1380 1213.4,-1992.6 82,-1168.8 956.5,-1278 2890.1,-2460.7 1117.9,-683.9 1197.9,-2536.7 1097.2,-3945.4 -24.9,-349 219.8,-660.4 564.9,-717.8 470.1,-78.1 993.3,-111 1475.6,-21.3 1322.9,246.1 1599.7,2491.7 799.8,2830.1 0,0 1357.7,400 2017,-646 659.4,-1045.9 659.4,-2706.5 136.4,-3214.3"
         style="fill:#f1a34f;fill-opacity:1;fill-rule:nonzero;stroke:none"
         id="path28"
         inkscape:connector-curvature="0" /><path
         d="m 14896.9,15196.8 c -389.4,0 -722,-296.6 -784.1,-700.6 -94,-612.3 -187.3,-1496.1 -69.3,-2103.8 176.1,-906.7 958.3,-1238.6 1460.1,-970 927.1,496.3 503.5,2414.6 245.9,3309.6 -79.6,276.2 -322.3,464.8 -596.8,464.8 h -255.8"
         style="fill:#ed7d2b;fill-opacity:1;fill-rule:nonzero;stroke:none"
         id="path30"
         inkscape:connector-curvature="0" /><path
         d="m 12784.6,13624.4 c -25.8,0 -51.4,10.7 -69.7,31.7 -33.4,38.5 -29.3,96.8 9.1,130.2 11.1,9.6 276.5,235 707.3,132.9 49.6,-11.7 80.3,-61.4 68.5,-111 -11.7,-49.6 -61.4,-80.3 -111,-68.5 -339.7,80.4 -541.7,-90.9 -543.7,-92.7 -17.4,-15.2 -39,-22.6 -60.5,-22.6"
         style="fill:#e07f20;fill-opacity:1;fill-rule:nonzero;stroke:none"
         id="path32"
         inkscape:connector-curvature="0" /><path
         d="m 10571.1,12389.6 c -56.7,119.3 -94.1,226.8 -115.2,294.8 -13.3,42.5 7.5,88.2 48.1,106.4 59.5,26.8 154,69.4 269.6,122.6 0,0 75.7,-429.2 -202.5,-523.8"
         style="fill:#bc6211;fill-opacity:1;fill-rule:nonzero;stroke:none"
         id="path34"
         inkscape:connector-curvature="0" /><path
         d="m 26861.4,1932.1 h -1563.9 c 1785.3,366.9 1411.2,1735.8 1411.2,1735.8 -184.5,-338.3 -1214.9,-399.8 -1214.9,-399.8 0,0 692.1,645.9 630.5,1599.4 -50,774.9 -954.1,901.2 -1291,921.3 -77.6,4.6 -125.2,3.6 -125.2,3.6 0,0 1357.6,400 2017,-645.9 659.4,-1046 659.4,-2706.6 136.3,-3214.4"
         style="fill:#ffdabb;fill-opacity:1;fill-rule:nonzero;stroke:none"
         id="path36"
         inkscape:connector-curvature="0" /><path
         d="m 15769.1,15339.3 c 0,0 870,-229.4 1054.5,-921.5 0,0 -115.5,112.3 -197.5,146.5 0,0 224.1,-191.4 197.5,-676.8 -26.6,-485.3 -300.4,-1257.7 -156.7,-1787.5 l -546.6,950.2 -351.2,2289.1"
         style="fill:#f1a34f;fill-opacity:1;fill-rule:nonzero;stroke:none"
         id="path38"
         inkscape:connector-curvature="0" /><path
         d="m 12116.1,13719.7 c 0,0 251,632.7 0,868.5 0,0 174.6,51.2 261.8,0 0,0 30.7,481.9 645.9,697.2 615.2,215.3 1547.8,232.2 1547.8,232.2 l -1609.3,-1196 -846.2,-601.9"
         style="fill:#f1a34f;fill-opacity:1;fill-rule:nonzero;stroke:none"
         id="path40"
         inkscape:connector-curvature="0" /><path
         d="m 24857.8,12439.4 h -1457.5 c -67,0 -121.7,54.7 -121.7,121.6 v 1406.8 c 0,66.9 54.7,121.7 121.7,121.7 h 1457.5 c 66.9,0 121.7,-54.8 121.7,-121.7 V 12561 c 0,-66.9 -54.8,-121.6 -121.7,-121.6"
         style="fill:#c0d8fb;fill-opacity:1;fill-rule:nonzero;stroke:none"
         id="path42"
         inkscape:connector-curvature="0" /><path
         d="m 24794.7,12510.8 h -1331.3 c -61.1,0 -111.1,50 -111.1,111.1 v 1285 c 0,61.1 50,111.1 111.1,111.1 h 1331.3 c 61.1,0 111.1,-50 111.1,-111.1 v -1285 c 0,-61.1 -50,-111.1 -111.1,-111.1"
         style="fill:#dfebfd;fill-opacity:1;fill-rule:nonzero;stroke:none"
         id="path44"
         inkscape:connector-curvature="0" /><path
         d="m 24093.8,13867.4 c 0,19.5 15.8,35.2 35.2,35.2 19.5,0 35.3,-15.7 35.3,-35.2 0,-19.5 -15.8,-35.2 -35.3,-35.2 -19.4,0 -35.2,15.7 -35.2,35.2"
         style="fill:#b7d3f3;fill-opacity:1;fill-rule:nonzero;stroke:none"
         id="path46"
         inkscape:connector-curvature="0" /><path
         d="m 24378.1,13817.6 c 9.5,17 30.9,23.1 47.9,13.7 17,-9.5 23.2,-30.9 13.7,-47.9 -9.4,-17 -30.9,-23.2 -47.9,-13.7 -17,9.4 -23.1,30.9 -13.7,47.9"
         style="fill:#b7d3f3;fill-opacity:1;fill-rule:nonzero;stroke:none"
         id="path48"
         inkscape:connector-curvature="0" /><path
         d="m 24621.7,13624.1 c 16.3,10.5 38.1,5.8 48.7,-10.5 10.5,-16.4 5.8,-38.2 -10.5,-48.7 -16.4,-10.6 -38.2,-5.9 -48.7,10.5 -10.6,16.3 -5.9,38.1 10.5,48.7"
         style="fill:#b7d3f3;fill-opacity:1;fill-rule:nonzero;stroke:none"
         id="path50"
         inkscape:connector-curvature="0" /><path
         d="m 24742.3,13324.6 c 19.5,0 35.3,-15.8 35.3,-35.3 0,-19.4 -15.8,-35.2 -35.3,-35.2 -19.4,0 -35.2,15.8 -35.2,35.2 0,19.5 15.8,35.3 35.2,35.3"
         style="fill:#b7d3f3;fill-opacity:1;fill-rule:nonzero;stroke:none"
         id="path52"
         inkscape:connector-curvature="0" /><path
         d="m 24680.7,12977 c 13.8,-13.8 13.8,-36.1 0,-49.8 -13.7,-13.8 -36,-13.8 -49.8,0 -13.8,13.7 -13.8,36 0,49.8 13.8,13.8 36.1,13.8 49.8,0"
         style="fill:#b7d3f3;fill-opacity:1;fill-rule:nonzero;stroke:none"
         id="path54"
         inkscape:connector-curvature="0" /><path
         d="m 24459.5,12755.2 c 13.7,-13.8 13.7,-36.1 0,-49.9 -13.8,-13.7 -36.1,-13.7 -49.9,0 -13.7,13.8 -13.7,36.1 0,49.9 13.8,13.7 36.1,13.7 49.9,0"
         style="fill:#b7d3f3;fill-opacity:1;fill-rule:nonzero;stroke:none"
         id="path56"
         inkscape:connector-curvature="0" /><path
         d="m 24093.8,12640.8 c 0,19.5 15.8,35.3 35.2,35.3 19.5,0 35.3,-15.8 35.3,-35.3 0,-19.4 -15.8,-35.2 -35.3,-35.2 -19.4,0 -35.2,15.8 -35.2,35.2"
         style="fill:#b7d3f3;fill-opacity:1;fill-rule:nonzero;stroke:none"
         id="path58"
         inkscape:connector-curvature="0" /><path
         d="m 23878.9,13817.6 c -9.5,17 -31,23.1 -48,13.7 -17,-9.5 -23.1,-30.9 -13.6,-47.9 9.4,-17 30.9,-23.2 47.9,-13.7 17,9.4 23.1,30.9 13.7,47.9"
         style="fill:#b7d3f3;fill-opacity:1;fill-rule:nonzero;stroke:none"
         id="path60"
         inkscape:connector-curvature="0" /><path
         d="m 23635.3,13624.1 c -16.4,10.5 -38.2,5.8 -48.7,-10.5 -10.6,-16.4 -5.9,-38.2 10.5,-48.7 16.3,-10.6 38.1,-5.9 48.7,10.5 10.5,16.3 5.8,38.1 -10.5,48.7"
         style="fill:#b7d3f3;fill-opacity:1;fill-rule:nonzero;stroke:none"
         id="path62"
         inkscape:connector-curvature="0" /><path
         d="m 23514.6,13324.6 c -19.4,0 -35.2,-15.8 -35.2,-35.3 0,-19.4 15.8,-35.2 35.2,-35.2 19.5,0 35.3,15.8 35.3,35.2 0,19.5 -15.8,35.3 -35.3,35.3"
         style="fill:#b7d3f3;fill-opacity:1;fill-rule:nonzero;stroke:none"
         id="path64"
         inkscape:connector-curvature="0" /><path
         d="m 23576.2,12977 c -13.7,-13.8 -13.7,-36.1 0,-49.8 13.8,-13.8 36.1,-13.8 49.9,0 13.7,13.7 13.7,36 0,49.8 -13.8,13.8 -36.1,13.8 -49.9,0"
         style="fill:#b7d3f3;fill-opacity:1;fill-rule:nonzero;stroke:none"
         id="path66"
         inkscape:connector-curvature="0" /><path
         d="m 23797.5,12755.2 c -13.8,-13.8 -13.8,-36.1 0,-49.9 13.8,-13.7 36.1,-13.7 49.8,0 13.8,13.8 13.8,36.1 0,49.9 -13.7,13.7 -36,13.7 -49.8,0"
         style="fill:#b7d3f3;fill-opacity:1;fill-rule:nonzero;stroke:none"
         id="path68"
         inkscape:connector-curvature="0" /><path
         d="m 24119.5,13289.3 c 0,19.5 15.8,35.3 35.3,35.3 19.4,0 35.2,-15.8 35.2,-35.3 0,-19.4 -15.8,-35.2 -35.2,-35.2 -19.5,0 -35.3,15.8 -35.3,35.2"
         style="fill:#b7d3f3;fill-opacity:1;fill-rule:nonzero;stroke:none"
         id="path70"
         inkscape:connector-curvature="0" /><path
         d="m 24159.6,13289.4 h -9.6 v 440.1 h 9.6 v -440.1"
         style="fill:#b7d3f3;fill-opacity:1;fill-rule:nonzero;stroke:none"
         id="path72"
         inkscape:connector-curvature="0" /><path
         d="m 24159.2,13278.6 -17.8,22.7 233.4,183.2 17.8,-22.7 -233.4,-183.2"
         style="fill:#b7d3f3;fill-opacity:1;fill-rule:nonzero;stroke:none"
         id="path74"
         inkscape:connector-curvature="0" /><path
         d="m 18597.3,6807.9 c 0,0 -5.5,-17 -30.2,-36.3 -17.5,-22.3 -36.9,-49.8 -41,-66.7 -7.8,-32.2 -46.7,-37.2 -55.9,-7.2 -3.1,10 -3.5,20.7 -1.5,31.7 -63.5,-14.3 -157.6,-19.4 -296.7,-0.2 0,0 -108.2,10.4 -21,85.7 58.3,50.3 98,42.4 181.2,112 83.3,69.6 191.9,95 262.6,57.3 l 90.2,-7.8 27.9,-152.2 -115.6,-16.3"
         style="fill:#ffb27d;fill-opacity:1;fill-rule:nonzero;stroke:none"
         id="path76"
         inkscape:connector-curvature="0" /><path
         d="m 19666.5,9802.9 c 0,0 693.6,-690 205.7,-1923.2 -131.7,-332.9 -1206.9,-1095.3 -1206.9,-1095.3 0,0 -124.4,112.5 -90.9,219 0,0 704.8,964.9 806.8,1010.8 90.5,40.7 -27.1,1127.5 32.7,1397.5 59.8,270.1 252.6,391.2 252.6,391.2"
         style="fill:#9db0f4;fill-opacity:1;fill-rule:nonzero;stroke:none"
         id="path78"
         inkscape:connector-curvature="0" /><path
         d="m 22194.7,2656.9 c 0,0 150.9,-137.7 121.4,-235.6 -29.4,-97.8 -165.6,-163.1 -184,-282.7 -18.4,-119.6 -92,-184.8 -158.3,-184.8 -66.2,0 -315.8,0 -315.8,0 0,0 -48.8,84.1 69,109.5 117.8,25.4 162.2,165.9 154.8,296.4 -7.3,130.5 11.1,304.4 11.1,304.4 l 250.2,58 51.6,-65.2"
         style="fill:#233862;fill-opacity:1;fill-rule:nonzero;stroke:none"
         id="path80"
         inkscape:connector-curvature="0" /><path
         d="m 22194.7,2743.3 c -27.6,-81.7 -331.3,-201.2 -331.3,-201.2 0,0 -165.6,260.9 -695.7,1196 -45.6,80.6 -93.3,168.9 -142.4,263.1 -520.5,999.9 -1193.7,2661.6 -1193.7,2661.6 l 1286.5,358.8 c 0,0 60.7,-516.4 71.7,-777.4 6.8,-159.5 97.5,-500.2 212.7,-797.8 73.3,-189.4 156.6,-361.3 234.5,-457.9 355,-440.2 557.7,-2245.2 557.7,-2245.2"
         style="fill:#b5453c;fill-opacity:1;fill-rule:nonzero;stroke:none"
         id="path82"
         inkscape:connector-curvature="0" /><path
         d="m 21402.5,5446.4 c -80.9,-410.1 -229.3,-1096.9 -377.2,-1445.2 -520.5,999.9 -1193.7,2661.6 -1193.7,2661.6 l 1286.5,358.8 c 0,0 60.7,-516.4 71.7,-777.4 6.8,-159.5 97.5,-500.2 212.7,-797.8"
         style="fill:#93312c;fill-opacity:1;fill-rule:nonzero;stroke:none"
         id="path84"
         inkscape:connector-curvature="0" /><path
         d="m 20343.3,2300.7 c 0,0 27.1,-313.4 -39.2,-346.1 l -847.9,1.8 c 0,0 0,97.8 136.2,119.6 136.2,21.7 375.5,101.5 415.9,279 40.5,177.6 335,-54.3 335,-54.3"
         style="fill:#233862;fill-opacity:1;fill-rule:nonzero;stroke:none"
         id="path86"
         inkscape:connector-curvature="0" /><path
         d="m 19627.4,6728 c 0,0 44.8,-549.4 97.3,-1209.8 71.5,-897.1 157.4,-1999 165.9,-2207.8 14.7,-362.4 73.6,-942.3 73.6,-942.3 0,0 139.8,-137.7 419.6,-79.7 0,0 249.4,827.7 320.6,1703.5 1.1,14.4 2.2,28.9 3.3,43.3 66.2,891.6 169.3,2769 169.3,2769 L 19627.4,6728"
         style="fill:#b5453c;fill-opacity:1;fill-rule:nonzero;stroke:none"
         id="path88"
         inkscape:connector-curvature="0" /><path
         d="m 20079.5,9924.6 c 0,0 -444.2,-406.8 -770.2,-360.4 0,0 65.3,144.6 130.7,262.2 -20.8,60.6 -37.9,113.3 -50,158.4 -30.2,103.7 -39.9,163.6 -39.9,163.6 l 181.5,196.9 171.8,188.1 c 55.3,-442.2 376.1,-608.8 376.1,-608.8"
         style="fill:#ffb27d;fill-opacity:1;fill-rule:nonzero;stroke:none"
         id="path90"
         inkscape:connector-curvature="0" /><path
         d="m 21422.9,6048.1 c -562.6,-527.8 -1858,-611.5 -1868.9,-605 -65,267.9 -149.1,713.4 -222.4,1126.4 -30.5,172.3 -59.3,338.6 -83.8,484.3 -49,288.4 -82.1,494.9 -82.9,501.4 0,0 -2.1,15.8 -5.6,42.2 -5.7,40.5 -14.5,106.5 -24.1,179.8 -10.3,78.6 -21.5,165.9 -30.6,240.1 -3.4,26.9 -6.3,52 -8.9,74.4 0,1.2 -0.3,2.4 -0.3,3.6 -4.8,49 0.7,162.7 13.6,305.4 4.1,46 9.1,95 14.6,145.8 0.1,1.3 0.3,2.4 0.4,3.8 33.9,305.1 91.8,674.6 153.2,852.4 32,91.5 144.8,360.2 144.8,360.2 110.9,-4 183.4,40.2 287.9,113.8 114.5,80 237.8,166.1 262,153.1 181.5,-92.6 334.3,-341.6 447.7,-673.2 64.9,-191 1031.2,-3282.2 1003.3,-3308.5"
         style="fill:#aec3ff;fill-opacity:1;fill-rule:nonzero;stroke:none"
         id="path92"
         inkscape:connector-curvature="0" /><path
         d="m 19734,10365.8 c 0,0 -96.1,-269.9 -344,-381 -30.2,103.7 -39.9,163.6 -39.9,163.6 l 181.5,196.9 202.4,20.5"
         style="fill:#ed985f;fill-opacity:1;fill-rule:nonzero;stroke:none"
         id="path94"
         inkscape:connector-curvature="0" /><path
         d="m 19254.2,10140.4 c 0,0 527.3,-1.4 524.6,322.2 -2.6,323.6 63.7,541.3 -273,555.8 -336.8,14.5 -401.2,-109.8 -426.9,-218.1 -25.8,-108.3 38.1,-651.3 175.3,-659.9"
         style="fill:#ffb27d;fill-opacity:1;fill-rule:nonzero;stroke:none"
         id="path96"
         inkscape:connector-curvature="0" /><path
         d="m 19865.3,11115.1 c 3.8,6.1 13.9,12.1 37.6,17.3 0,0 -21.1,8.9 -46.8,5.4 -10.3,32.5 -37.5,88.5 -97.1,93.6 0,0 33.4,-11.4 43.1,-46.2 -77.3,57.5 -227.4,84.2 -616.1,-10.3 -512.2,-124.5 -287.7,-429.1 -214.2,-457.9 73.5,-28.8 225.1,107 351.9,117.2 126.7,10.2 179.6,-166.8 226.1,-184.7 46.4,-18 22.7,23.2 75.9,58.4 53.3,35.2 74.1,-59.1 67.5,-123.7 -6.7,-64.5 85.4,-133.4 85.4,-133.4 0,0 0,0 65.9,98.7 65.9,98.7 82.5,474.7 33.8,546.4 -4.3,6.3 -8.6,12.7 -13,19.2"
         style="fill:#2c3a64;fill-opacity:1;fill-rule:nonzero;stroke:none"
         id="path98"
         inkscape:connector-curvature="0" /><path
         d="m 19973.2,10030.1 c 0,0 -70.1,131 -111.5,140.4 0,0 -520.5,-211.8 -604.6,-838.3 0,0 151.3,400.5 716.1,697.9"
         style="fill:#9db0f4;fill-opacity:1;fill-rule:nonzero;stroke:none"
         id="path100"
         inkscape:connector-curvature="0" /><path
         d="m 17402.3,8099.1 661.5,-698 -281.1,-245.2 c 0,0 -693,692.1 -680.5,699.8 12.5,7.7 300.1,243.4 300.1,243.4"
         style="fill:#ffffff;fill-opacity:1;fill-rule:nonzero;stroke:none"
         id="path102"
         inkscape:connector-curvature="0" /><path
         d="m 17110.1,8428.1 326.5,-345.8 -295.2,-278.7 -326.5,345.9 c -27.8,29.4 -26.4,76 3,103.8 l 188.3,177.8 c 29.5,27.8 76.1,26.5 103.9,-3"
         style="fill:#b0d0ff;fill-opacity:1;fill-rule:nonzero;stroke:none"
         id="path104"
         inkscape:connector-curvature="0" /><path
         d="m 18205.3,7418.4 -445.2,-420.3 -84.1,89.1 445.2,420.3 84.1,-89.1"
         style="fill:#1c468a;fill-opacity:1;fill-rule:nonzero;stroke:none"
         id="path106"
         inkscape:connector-curvature="0" /><path
         d="m 18452.6,6957.1 -246.1,-232.4 -46.5,49.2 246.2,232.4 46.4,-49.2"
         style="fill:#1c468a;fill-opacity:1;fill-rule:nonzero;stroke:none"
         id="path108"
         inkscape:connector-curvature="0" /><path
         d="m 18366.2,6922 -119.8,-113.1 -323.6,342.8 119.8,113.1 323.6,-342.8"
         style="fill:#1c468a;fill-opacity:1;fill-rule:nonzero;stroke:none"
         id="path110"
         inkscape:connector-curvature="0" /><path
         d="m 18046.4,7404.9 c 19.7,-20.8 18.7,-53.6 -2.1,-73.3 L 17856,7153.8 c -20.8,-19.6 -53.7,-18.7 -73.3,2.1 l -952.1,1008.4 c -19.5,20.7 -18.6,53.7 2.2,73.3 l 188.3,177.8 c 20.8,19.7 53.7,18.6 73.3,-2.1 z m -1040.2,1026.2 -188.3,-177.8 c -29.4,-27.8 -30.8,-74.4 -3,-103.8 l 952,-1008.4 c 27.9,-29.5 74.4,-30.8 103.9,-3 l 188.3,177.8 c 29.5,27.8 30.8,74.4 3,103.9 l -952,1008.3 c -27.8,29.5 -74.4,30.8 -103.9,3"
         style="fill:#1c468a;fill-opacity:1;fill-rule:nonzero;stroke:none"
         id="path112"
         inkscape:connector-curvature="0" /><path
         d="m 16950,8363.1 -60.9,-57.5 -74.8,79.2 60.9,57.5 74.8,-79.2"
         style="fill:#1c468a;fill-opacity:1;fill-rule:nonzero;stroke:none"
         id="path114"
         inkscape:connector-curvature="0" /><path
         d="m 16870.1,8396.6 -9.9,-9.3 -365.3,387 9.9,9.2 365.3,-386.9"
         style="fill:#1c468a;fill-opacity:1;fill-rule:nonzero;stroke:none"
         id="path116"
         inkscape:connector-curvature="0" /><path
         d="m 17075.7,8296.3 -126.3,-119.2 -11,11.6 126.3,119.2 11,-11.6"
         style="fill:#1c468a;fill-opacity:1;fill-rule:nonzero;stroke:none"
         id="path118"
         inkscape:connector-curvature="0" /><path
         d="m 17110.1,8259.8 -126.2,-119.2 -11,11.7 126.2,119.2 11,-11.7"
         style="fill:#1c468a;fill-opacity:1;fill-rule:nonzero;stroke:none"
         id="path120"
         inkscape:connector-curvature="0" /><path
         d="m 17147.3,8220.4 -126.2,-119.2 -11,11.7 126.2,119.2 11,-11.7"
         style="fill:#1c468a;fill-opacity:1;fill-rule:nonzero;stroke:none"
         id="path122"
         inkscape:connector-curvature="0" /><path
         d="m 17180.4,8185.4 -126.3,-119.2 -11,11.6 126.3,119.2 11,-11.6"
         style="fill:#1c468a;fill-opacity:1;fill-rule:nonzero;stroke:none"
         id="path124"
         inkscape:connector-curvature="0" /><path
         d="m 17240.1,8178.2 -182.3,-172 -11,11.6 182.3,172.1 11,-11.7"
         style="fill:#1c468a;fill-opacity:1;fill-rule:nonzero;stroke:none"
         id="path126"
         inkscape:connector-curvature="0" /><path
         d="m 17247.9,8113.9 -126.3,-119.2 -11,11.6 126.3,119.2 11,-11.6"
         style="fill:#1c468a;fill-opacity:1;fill-rule:nonzero;stroke:none"
         id="path128"
         inkscape:connector-curvature="0" /><path
         d="m 17282.3,8077.4 -126.2,-119.2 -11,11.7 126.2,119.2 11,-11.7"
         style="fill:#1c468a;fill-opacity:1;fill-rule:nonzero;stroke:none"
         id="path130"
         inkscape:connector-curvature="0" /><path
         d="m 17319.5,8038 -126.2,-119.2 -11.1,11.7 126.3,119.2 11,-11.7"
         style="fill:#1c468a;fill-opacity:1;fill-rule:nonzero;stroke:none"
         id="path132"
         inkscape:connector-curvature="0" /><path
         d="m 17352.6,8003 -126.3,-119.2 -11,11.6 126.3,119.2 11,-11.6"
         style="fill:#1c468a;fill-opacity:1;fill-rule:nonzero;stroke:none"
         id="path134"
         inkscape:connector-curvature="0" /><path
         d="m 17412.3,7995.9 -182.3,-172.1 -11,11.7 182.3,172 11,-11.6"
         style="fill:#1c468a;fill-opacity:1;fill-rule:nonzero;stroke:none"
         id="path136"
         inkscape:connector-curvature="0" /><path
         d="m 17420.1,7931.5 -126.3,-119.2 -11,11.7 126.3,119.1 11,-11.6"
         style="fill:#1c468a;fill-opacity:1;fill-rule:nonzero;stroke:none"
         id="path138"
         inkscape:connector-curvature="0" /><path
         d="m 17454.5,7895 -126.2,-119.2 -11,11.7 126.2,119.2 11,-11.7"
         style="fill:#1c468a;fill-opacity:1;fill-rule:nonzero;stroke:none"
         id="path140"
         inkscape:connector-curvature="0" /><path
         d="m 17491.7,7855.6 -126.2,-119.2 -11.1,11.7 126.3,119.2 11,-11.7"
         style="fill:#1c468a;fill-opacity:1;fill-rule:nonzero;stroke:none"
         id="path142"
         inkscape:connector-curvature="0" /><path
         d="m 17524.8,7820.6 -126.3,-119.2 -11,11.7 126.3,119.2 11,-11.7"
         style="fill:#1c468a;fill-opacity:1;fill-rule:nonzero;stroke:none"
         id="path144"
         inkscape:connector-curvature="0" /><path
         d="m 17584.5,7813.5 -182.3,-172.1 -11,11.7 182.2,172 11.1,-11.6"
         style="fill:#1c468a;fill-opacity:1;fill-rule:nonzero;stroke:none"
         id="path146"
         inkscape:connector-curvature="0" /><path
         d="m 17595.7,7745.4 -126.2,-119.2 -11.1,11.7 126.3,119.2 11,-11.7"
         style="fill:#1c468a;fill-opacity:1;fill-rule:nonzero;stroke:none"
         id="path148"
         inkscape:connector-curvature="0" /><path
         d="m 17630.2,7709 -126.3,-119.2 -11,11.6 126.2,119.2 11.1,-11.6"
         style="fill:#1c468a;fill-opacity:1;fill-rule:nonzero;stroke:none"
         id="path150"
         inkscape:connector-curvature="0" /><path
         d="m 17667.4,7669.6 -126.3,-119.2 -11,11.6 126.2,119.2 11.1,-11.6"
         style="fill:#1c468a;fill-opacity:1;fill-rule:nonzero;stroke:none"
         id="path152"
         inkscape:connector-curvature="0" /><path
         d="m 17700.4,7634.5 -126.2,-119.2 -11.1,11.7 126.3,119.2 11,-11.7"
         style="fill:#1c468a;fill-opacity:1;fill-rule:nonzero;stroke:none"
         id="path154"
         inkscape:connector-curvature="0" /><path
         d="m 17760.1,7627.4 -182.3,-172.1 -11,11.7 182.3,172.1 11,-11.7"
         style="fill:#1c468a;fill-opacity:1;fill-rule:nonzero;stroke:none"
         id="path156"
         inkscape:connector-curvature="0" /><path
         d="m 17762.1,7569.2 -126.2,-119.2 -11,11.7 126.2,119.2 11,-11.7"
         style="fill:#1c468a;fill-opacity:1;fill-rule:nonzero;stroke:none"
         id="path158"
         inkscape:connector-curvature="0" /><path
         d="m 17796.6,7532.7 -126.3,-119.2 -11,11.7 126.2,119.2 11.1,-11.7"
         style="fill:#1c468a;fill-opacity:1;fill-rule:nonzero;stroke:none"
         id="path160"
         inkscape:connector-curvature="0" /><path
         d="m 17833.8,7493.3 -126.3,-119.2 -11,11.7 126.2,119.2 11.1,-11.7"
         style="fill:#1c468a;fill-opacity:1;fill-rule:nonzero;stroke:none"
         id="path162"
         inkscape:connector-curvature="0" /><path
         d="m 17866.8,7458.3 -126.2,-119.2 -11.1,11.7 126.3,119.2 11,-11.7"
         style="fill:#1c468a;fill-opacity:1;fill-rule:nonzero;stroke:none"
         id="path164"
         inkscape:connector-curvature="0" /><path
         d="m 17926.5,7451.2 -182.3,-172.1 -11,11.7 182.3,172 11,-11.6"
         style="fill:#1c468a;fill-opacity:1;fill-rule:nonzero;stroke:none"
         id="path166"
         inkscape:connector-curvature="0" /><path
         d="m 19906.3,8926.9 c -5.5,-14.6 -324.9,-847.1 -771.1,-1149.7 -10.3,78.6 -21.5,165.9 -30.6,240.1 -3.4,26.9 -6.3,52 -8.9,74.4 0,1.2 -0.3,2.4 -0.3,3.6 -4.8,49 0.7,162.7 13.6,305.4 82.6,119.4 148.1,204.9 148.1,204.9 l 649.2,321.3"
         style="fill:#9db0f4;fill-opacity:1;fill-rule:nonzero;stroke:none"
         id="path168"
         inkscape:connector-curvature="0" /><path
         d="m 17230.8,7779.8 c 0,0 -192.4,148.7 -252,144.4 -59.6,-4.4 -35.9,-119.5 1.3,-183.9 41.7,-72.3 97.4,-138.2 159,-139.7 61.5,-1.4 112.3,9.9 112.3,9.9 l -20.6,169.3"
         style="fill:#ffb27d;fill-opacity:1;fill-rule:nonzero;stroke:none"
         id="path170"
         inkscape:connector-curvature="0" /><path
         d="m 17243.7,7789.8 c 0,0 -38.1,63.7 -59.8,67.8 -21.7,4 -97.1,-3.1 -113.2,-12.1 -16.1,-9 121.1,-98.3 146.5,-91 25.5,7.4 26.5,35.3 26.5,35.3"
         style="fill:#ffb27d;fill-opacity:1;fill-rule:nonzero;stroke:none"
         id="path172"
         inkscape:connector-curvature="0" /><path
         d="m 19990.9,9651.4 c 0,0 193.7,-1053.7 -1014.7,-1859 -326.2,-217.4 -1769.3,-232.7 -1769.3,-232.7 0,0 -41.8,178.9 54.8,253.8 0,0 1236.2,428.6 1356.6,406.2 106.8,-19.8 679,1031.5 901.3,1237.2 222.3,205.7 471.3,194.5 471.3,194.5"
         style="fill:#aec3ff;fill-opacity:1;fill-rule:nonzero;stroke:none"
         id="path174"
         inkscape:connector-curvature="0" /><path
         d="m 8370.3,6690.8 c -67.89,217.9 -363.08,258.8 -481.85,63.8 -21.36,-35 -34.88,-75.3 -36.05,-121.5 -6.55,-255.6 497.48,-1244.8 564.39,-1332.3 121.8,-159.3 856.99,-542.4 856.99,-542.4 l 156.23,22.8 c 0,0 -88.33,55.5 -179.79,146.8 -188.89,188.6 -464.26,495.1 -514.71,537.6 -86.57,72.9 -236.32,811.3 -365.21,1225.2"
         style="fill:#ed985f;fill-opacity:1;fill-rule:nonzero;stroke:none"
         id="path176"
         inkscape:connector-curvature="0" /><path
         d="m 8583.68,7941.1 c 4.08,16.4 -356.62,-163 -374.92,-183.3 -169.17,-187.6 -120.93,-432.5 -24.13,-434.9 62.08,-1.5 50.05,-104.7 50.05,-104.7 l 691.61,292.6 c 0,0 -83.27,485.6 -342.61,430.3"
         style="fill:#b5453c;fill-opacity:1;fill-rule:nonzero;stroke:none"
         id="path178"
         inkscape:connector-curvature="0" /><path
         d="m 8668.84,7903.2 c 0,0 24.72,269.5 -276.31,269.5 0,0 91.22,-24.8 138.4,-74.3 0,0 -191.99,112.8 -400.93,-60.4 -208.95,-173.2 -79.12,-607.6 -142.66,-690.1 -63.54,-82.5 -310.97,-99 -280.73,-365.6 30.25,-266.7 785.28,-600.7 736.79,-821.4 0,0 295.89,435 84.31,633.5 0,0 103.13,-97.1 113.64,-212.6 0,0 27.99,225.4 -115.47,297.5 -126.94,63.8 -230.93,297.2 -219.94,338.9 11,41.7 362.9,685 362.9,685"
         style="fill:#b5453c;fill-opacity:1;fill-rule:nonzero;stroke:none"
         id="path180"
         inkscape:connector-curvature="0" /><path
         d="m 7823.29,2077.6 -149.67,22 c 0,0 -503.21,399.9 -578.16,1146.1 -7.64,76 -9.23,153.1 -3.58,230.8 0.67,8.9 -0.32,17.9 -5.21,25.4 l -0.17,0.2 c -16.11,24.7 -56.2,86.6 -110.46,174.5 -53.51,86.7 -145.05,250.6 -245.79,434.4 -181.45,331.1 -392.7,727.1 -465.16,853.3 -230.88,402 -119.6,672.3 -119.6,672.3 0,0 644.09,63.6 820.59,218 l 63.56,-97.9 c 0,0 139.55,-617.9 132.96,-620.7 6.87,-21 13.86,-42.4 20.94,-64.2 110.14,-339.9 236.83,-764.8 305.88,-1110.8 38.82,-194.7 59.39,-364.3 48.33,-479.9 -3.79,-39.6 0.83,-100.5 11.39,-175.8 62.35,-443.4 274.15,-1227.7 274.15,-1227.7"
         style="fill:#f1a34f;fill-opacity:1;fill-rule:nonzero;stroke:none"
         id="path182"
         inkscape:connector-curvature="0" /><path
         d="m 8137.23,1888.3 h -624.4 c 0,0 -14.97,95.2 17.64,167.3 31.25,69.3 75.8,71.5 5.69,180.1 39.68,-40.8 167.22,-57.7 257.49,-45.6 11.06,-17.9 71.31,-138.2 108.26,-164.8 40.8,-29.3 222.75,-18.8 235.32,-137"
         style="fill:#233862;fill-opacity:1;fill-rule:nonzero;stroke:none"
         id="path184"
         inkscape:connector-curvature="0" /><path
         d="M 7183.54,5071.8 C 7129,4771 7000.18,4270.4 6730.25,4111 c -181.45,331.1 -392.7,727.1 -465.16,853.3 -230.88,402 -119.6,672.3 -119.6,672.3 0,0 644.09,63.6 820.59,218 l 63.56,-97.9 c 0,0 139.55,-617.9 132.96,-620.7 6.87,-21 13.86,-42.4 20.94,-64.2"
         style="fill:#e58435;fill-opacity:1;fill-rule:nonzero;stroke:none"
         id="path186"
         inkscape:connector-curvature="0" /><path
         d="m 6745.63,5590.1 2.11,116.8 c -232.67,-29.3 -802.27,278 -802.27,278 0,0 -243.42,-161.9 -276.74,-624.2 -16.27,-225.7 -119.16,-1180.1 -130.54,-1465.1 -4.16,-103.3 -5.53,-177 -6,-206.5 l 0.03,-0.2 c -0.14,-9 -4.36,-17 -9.89,-24.1 -48.15,-61.2 -89.91,-126 -126.08,-193.2 C 5041.21,2811 5226.88,1913.4 5226.88,1913.4 l 82.44,20.9 c 0,0 300.22,930.5 496.42,1333 33.3,68.3 63.55,121.4 88.86,152.1 73.77,89.6 151.56,241.8 228.24,424.9 144.94,346.3 285.66,803.1 386.02,1156.9 7.08,-1.3 236.77,588.9 236.77,588.9"
         style="fill:#f1a34f;fill-opacity:1;fill-rule:nonzero;stroke:none"
         id="path188"
         inkscape:connector-curvature="0" /><path
         d="m 8107.24,6369.5 c -380.37,87.3 -137.37,621.8 -115.33,612.4 52.7,10.8 168.46,103.3 272,284 l 13.99,-12.1 233.62,-204.8 c 0,0 -54.01,-79.7 -99.44,-157.7 -35.49,-61.1 -65.67,-121.3 -60.87,-141.9 18.8,-14.8 -142.51,-403.2 -243.97,-379.9"
         style="fill:#ffb27d;fill-opacity:1;fill-rule:nonzero;stroke:none"
         id="path190"
         inkscape:connector-curvature="0" /><path
         d="m 8347.4,6766.6 c 0,0 66.88,-132 102.56,-246.3 35.68,-114.3 124.96,-477.9 124.96,-477.9 0,0 -184.12,-210.1 -440.26,-197.9 0,0 -137.72,215.6 -89.19,410.3 48.54,194.7 301.93,511.8 301.93,511.8"
         style="fill:#9db0f4;fill-opacity:1;fill-rule:nonzero;stroke:none"
         id="path192"
         inkscape:connector-curvature="0" /><path
         d="m 8511.51,7048.9 c 0,0 -54.02,-79.5 -99.43,-157.7 -145.24,89.6 -145.41,269.4 -134.21,362.5 l 233.64,-204.8"
         style="fill:#ed985f;fill-opacity:1;fill-rule:nonzero;stroke:none"
         id="path194"
         inkscape:connector-curvature="0" /><path
         d="m 8517.99,6946.3 c 0,0 -352.68,196.3 -227.09,414 125.59,217.8 164.66,389.8 395.14,273.7 230.49,-116.1 225.93,-224.2 201.69,-307.1 -24.24,-82.9 -274.76,-426 -369.74,-380.6"
         style="fill:#ffb27d;fill-opacity:1;fill-rule:nonzero;stroke:none"
         id="path196"
         inkscape:connector-curvature="0" /><path
         d="m 8947.3,7453.9 c -16.15,96.7 -65.26,105.9 -99.5,99.5 -130.25,215.3 -343.03,131.3 -343.03,131.3 -113.66,-142.6 -277.97,-167 -277.97,-167 0,0 40.92,-76.1 209.54,-123.3 51.51,-14.4 109.97,-5.6 166.35,13.3 -116.99,-65.2 -239.33,-90.2 -239.33,-90.2 222.21,-20.3 433.64,182.8 455.56,204.6 10.25,-31.5 28.23,-97.4 17.47,-145.6 -14.63,-65.5 -72.76,-184.1 -37.26,-199.5 0,0 172.4,131.9 148.17,276.9"
         style="fill:#b5453c;fill-opacity:1;fill-rule:nonzero;stroke:none"
         id="path198"
         inkscape:connector-curvature="0" /><path
         d="m 5723.41,1888.3 h -624.4 c 0,0 -14.97,95.2 17.65,167.3 31.25,69.3 80.2,100.8 68.48,184.6 39.67,-40.8 104.34,-86.6 194.61,-74.4 11.06,-18 71.39,-113.9 108.34,-140.5 40.8,-29.3 222.75,-18.8 235.32,-137"
         style="fill:#233862;fill-opacity:1;fill-rule:nonzero;stroke:none"
         id="path200"
         inkscape:connector-curvature="0" /><path
         d="m 8152.01,5945.8 c -80.35,-28 -193.08,-43.4 -308.43,-55.9 -164.2,-18 -333.72,-30.2 -422.51,-65.7 -17.35,-6.8 -67.85,-28 -118.45,-64.6 v -0.1 c 0,0 -1.26,-0.8 -3.49,-2.6 -16.77,-12.2 -33.53,-26.4 -48.94,-42.3 -23.56,-24.2 -44.11,-52.5 -57.29,-85 -32.57,-80.4 10.57,-303.5 38.19,-425.4 11.15,-49 -12.02,-99.7 -56.71,-122.9 -62.42,-32.3 -123.77,-62.1 -184.06,-89.4 -3.2,-1.4 -6.3,-2.8 -9.5,-4.2 0.58,12.4 0.78,24.7 0.78,36.7 0.09,84.1 -10.57,154.1 -10.57,154.1 -14.83,-84.9 -70.76,-176.6 -122.9,-247.2 -837.95,-336.2 -1423.4,-190 -1413.81,-22.5 33.06,581.5 425.23,1076.2 425.23,1076.2 731.42,850.5 2210.94,1074.4 2210.94,1074.4 0,0 70.86,8.5 156.35,-94.2 123,-148 129.11,-186.6 129.11,-186.6 0,0 32.47,-750.3 -203.94,-832.8"
         style="fill:#aec3ff;fill-opacity:1;fill-rule:nonzero;stroke:none"
         id="path202"
         inkscape:connector-curvature="0" /><path
         d="m 7843.53,5889.9 c -164.19,-17.9 -333.71,-30.2 -422.5,-65.6 -36.29,542.2 219.6,950.1 219.6,950.1 0,0 166.93,-679.3 202.9,-884.5"
         style="fill:#9db0f4;fill-opacity:1;fill-rule:nonzero;stroke:none"
         id="path204"
         inkscape:connector-curvature="0" /><path
         d="m 7231.09,5204.2 c 11.15,-49 -12.02,-99.7 -56.71,-122.9 -62.42,-32.3 -123.77,-62.1 -184.06,-89.4 -3.2,10.3 -6.11,21.1 -8.72,32.5 -9.51,42.5 -13.87,93.2 -10.57,154.1 13.96,257.5 189.3,452.4 279.16,536.1 -23.56,-24.2 -44.11,-52.5 -57.29,-85 -32.57,-80.4 10.57,-303.5 38.19,-425.4"
         style="fill:#9db0f4;fill-opacity:1;fill-rule:nonzero;stroke:none"
         id="path206"
         inkscape:connector-curvature="0" /><path
         d="m 8070.49,7059.4 c 0,0 64.42,81.4 107.96,78.8 0,0 176.08,-246.5 177.5,-359.6 0,0 -219.62,292.2 -285.46,280.8"
         style="fill:#9db0f4;fill-opacity:1;fill-rule:nonzero;stroke:none"
         id="path208"
         inkscape:connector-curvature="0" /><path
         d="m 9759.74,4674.1 c 0,0 -93.63,-1.7 -113.84,1.2 -19.83,2.9 -46.35,11.5 -73.01,12.4 -26.21,1 -50.3,-7.5 -74.93,-12.5 -3.67,-0.8 -7.41,-1.1 -11.15,-1.1 h -155.28 c 0,0 -15.58,7.4 -32.63,34.8 -7.35,11.9 -8.35,40.2 -25.12,49.5 -94.02,52.5 156.23,22.8 156.23,22.8 0,0 157.1,2.8 171.61,-8 25.82,-19.4 163.96,-91.7 158.12,-99.1"
         style="fill:#ed985f;fill-opacity:1;fill-rule:nonzero;stroke:none"
         id="path210"
         inkscape:connector-curvature="0" /><path
         d="m 9331.54,4674 c 0,0 95.33,-27.5 121.23,-45.1 l 27.36,-17.3 c 0,0 15.82,17.7 -9.1,37.3 -13.15,10.3 -49.46,40.6 -50.64,75.4 -1.18,34.7 -108.81,4.3 -88.85,-50.3"
         style="fill:#ed985f;fill-opacity:1;fill-rule:nonzero;stroke:none"
         id="path212"
         inkscape:connector-curvature="0" /><path
         d="m 13439.1,3173.4 c -143.3,227.7 -491.5,215 -731.2,173.9 h -0.3 c -15.9,-2.8 -31.2,-5.6 -46,-8.5 -118.2,-23.2 -200.3,-50.4 -200.3,-50.4 l -2069.2,1183.3 -132.2,75.7 c 0,0 -134.8,729 -553.97,772.8 -7.86,0.9 -15.78,1.4 -23.86,1.7 -399.07,16.4 -300.27,-530.2 -279.66,-626.9 2.01,-9.5 3.24,-14.6 3.24,-14.6 0,0 -21.02,0.1 -54.46,-2.9 -135.11,-12.3 -473.49,-76.6 -451.28,-413 20.32,-308.1 528.99,-366.1 797.78,-375.2 114.21,-3.9 225.89,-36.1 324.81,-92.7 l 1842.9,-1053.9 c 120.3,-68.9 221.1,-165.4 294.4,-280.2 145.4,-227.7 431.3,-592.9 706.6,-466.3 16.5,7.6 32.1,15.6 46.9,24 l 0.2,0.1 c 334.6,187.7 230.2,539 230.2,539 0,0 524,250.9 295.4,614.1"
         style="fill:#f2ccaa;fill-opacity:1;fill-rule:nonzero;stroke:none"
         id="path214"
         inkscape:connector-curvature="0" /><path
         d="m 13439.1,3173.4 c -143.3,227.7 -491.5,215 -731.2,173.9 h -0.3 c -25.4,-7.4 -39.7,-12.1 -39.7,-12.1 l -6.3,3.6 c -118.2,-23.2 -200.3,-50.4 -200.3,-50.4 l -2069.2,1183.3 -63.5,36.4 c -42.6,24.4 -73.2,64.3 -84.8,110.5 -46.5,184.6 -199.6,666.3 -537.87,701.6 -202.09,-149.8 -93.64,-593 -93.64,-593 0,0 -99.21,0.6 -209.88,-32.2 -16.84,-5 -34.04,-10.9 -51.22,-17.5 -130.73,-51.3 -258.66,-155.2 -244.74,-366.1 19.97,-302.6 510.99,-364 783.14,-374.7 36.84,-1.5 69.66,-2 96.76,-2.1 54.95,-0.1 109.05,-14.7 156.65,-41.9 l 1993.5,-1140.1 c 82.3,-47.1 150.7,-113.8 198.9,-193.4 24.1,-39.8 54,-86.7 88.7,-136 121.5,-173.1 150.8,-446.7 489.2,-403 l 0.2,0.1 c 334.6,187.7 230.2,539 230.2,539 0,0 524,250.9 295.4,614.1"
         style="fill:#f9ddbf;fill-opacity:1;fill-rule:nonzero;stroke:none"
         id="path216"
         inkscape:connector-curvature="0" /><path
         d="m 8015.96,6879.3 c 0,0 -411.49,-40.6 -444.48,-308 -32.99,-267.4 394.51,-1356.4 455.73,-1455 111.46,-179.6 767.79,-795 767.79,-795 l 120.96,73.4 c 0,0 -465.54,788.1 -537.62,861.8 -113.15,115.8 -223.05,1530.2 -362.38,1622.8"
         style="fill:#ffb27d;fill-opacity:1;fill-rule:nonzero;stroke:none"
         id="path218"
         inkscape:connector-curvature="0" /><path
         d="m 8226.8,6368.5 c 0,0 42.26,689.4 -485.4,522.7 -527.67,-166.7 81.89,-1352.4 81.89,-1352.4 0,0 309.69,15.3 419.52,285.5 l -16.01,544.2"
         style="fill:#aec3ff;fill-opacity:1;fill-rule:nonzero;stroke:none"
         id="path220"
         inkscape:connector-curvature="0" /><path
         d="m 8915.96,4394.7 c 0,0 68.13,-60.6 119.94,-73.4 51.81,-12.7 110.7,-161.1 120.12,-182.3 9.42,-21.2 -49.46,9.4 -73.01,45.5 -23.56,36.1 -39.64,50.3 -46.52,42.4 -6.87,-7.8 4.13,-106.8 43.38,-161.7 39.25,-55 62.8,-103.6 34.54,-100.5 -28.26,3.1 -196.27,44 -230.81,146 -34.54,102.1 -9.21,105.7 -88.6,210.6 -79.4,105 120.96,73.4 120.96,73.4"
         style="fill:#ffb27d;fill-opacity:1;fill-rule:nonzero;stroke:none"
         id="path222"
         inkscape:connector-curvature="0" /><path
         d="m 10882.6,6136.2 c 0,0 15.5,1.3 39.2,-11.9 23.8,-6.5 99.8,-14.1 114.7,-11.7 28.3,4.6 21.7,-31.3 0.8,-48.8 -7,-5.9 -39.1,-1.9 -48.5,-4 32.9,-46.1 68.7,-119.6 100.3,-237.5 0,0 28.2,-90 -61.4,-45.7 -59.9,29.7 -67,64.1 -150.7,107.3 -83.8,43.1 -140.7,121.5 -134.5,190.8 l -24.2,74.8 112.3,73.7 52,-87"
         style="fill:#ffb27d;fill-opacity:1;fill-rule:nonzero;stroke:none"
         id="path224"
         inkscape:connector-curvature="0" /><path
         d="m 10958.4,8778.8 c 0,0 -498,-348.1 -732.5,-1346.5 -71.1,-302.8 465.8,-1337.1 465.8,-1337.1 0,0 141.6,34.2 160.1,129.3 0,0 -151.6,841.4 -198.5,989.8 -26,82.1 486.8,543.9 553.2,774.8 66.4,230.8 -248.1,789.7 -248.1,789.7"
         style="fill:#9db0f4;fill-opacity:1;fill-rule:nonzero;stroke:none"
         id="path226"
         inkscape:connector-curvature="0" /><path
         d="m 10291.9,2242.3 c 0,0 20.7,-334.5 85.4,-339.3 8.7,-0.6 328.3,-0.6 328.3,-0.6 l 408,2.4 c 0,0 -2.7,98.3 -122,119.1 -119.2,20.8 -318.8,104.6 -391.1,262.2 -76,165.8 -308.6,-43.8 -308.6,-43.8"
         style="fill:#163560;fill-opacity:1;fill-rule:nonzero;stroke:none"
         id="path228"
         inkscape:connector-curvature="0" /><path
         d="m 10268.4,2219.1 c 0,0 124,-41.5 220.8,-41.5 108.1,0 206.2,29.4 206.2,29.4 0,0 23.4,225.9 151.9,723.4 67.4,260.8 163.6,596.1 300.4,1012.8 378.5,1151.6 493.6,1825.3 504.1,1889.1 0.6,3.3 0.8,5 0.8,5 l -1.3,0.5 -1163.5,510.9 c 0,0 143.8,-1587.1 -39.6,-2196.3 -25.7,-85.1 -47.8,-184.4 -66.6,-291.9 -115.9,-661.7 -113.2,-1641.4 -113.2,-1641.4"
         style="fill:#f1a34f;fill-opacity:1;fill-rule:nonzero;stroke:none"
         id="path230"
         inkscape:connector-curvature="0" /><path
         d="m 10381.6,3860.5 465.7,-930.1 c 67.4,260.8 163.6,596.1 300.4,1012.8 378.5,1151.6 493.6,1825.3 504.1,1889.1 -0.1,1.9 -0.2,3.6 -0.5,5.5 l -1163.5,510.9 c 0,0 143.8,-1587.1 -39.6,-2196.3 -25.7,-85.1 -47.8,-184.4 -66.6,-291.9"
         style="fill:#e58435;fill-opacity:1;fill-rule:nonzero;stroke:none"
         id="path232"
         inkscape:connector-curvature="0" /><path
         d="m 11200.7,2242.3 c 0,0 20.7,-334.5 85.4,-339.3 8.6,-0.6 328.2,-0.6 328.2,-0.6 l 408.1,2.4 c 0,0 -2.7,98.3 -122,119.1 -119.2,20.8 -318.9,104.6 -391.1,262.2 -76,165.8 -308.6,-43.8 -308.6,-43.8"
         style="fill:#163560;fill-opacity:1;fill-rule:nonzero;stroke:none"
         id="path234"
         inkscape:connector-curvature="0" /><path
         d="m 11860.3,6311.3 c 0,0 15.1,-1028.5 -162.8,-2291.2 -177.9,-1262.8 -117.6,-1798.8 -117.6,-1798.8 0,0 -122.3,-39.7 -171.6,-43.7 -125.7,-10.2 -254.6,29.5 -254.6,29.5 0,0 -254.7,1263.2 -181.7,1895.3 73,632 -348.7,2168.8 -348.7,2168.8 l 1237,40.1"
         style="fill:#f1a34f;fill-opacity:1;fill-rule:nonzero;stroke:none"
         id="path236"
         inkscape:connector-curvature="0" /><path
         d="m 11035.3,8718.1 227.1,-148.9 328.1,61.1 c -4.5,26.5 -26.2,136.3 -45.9,235.8 -1.2,5.8 -2.4,11.7 -3.5,17.4 -16.9,84.7 -31.5,157.4 -31.5,157.4 l -306.5,135.2 -114.3,50.4 c 0.3,-1.8 8.9,-93.9 10.1,-107.3 21.4,-238.9 -63.6,-401.1 -63.6,-401.1"
         style="fill:#ffb27d;fill-opacity:1;fill-rule:nonzero;stroke:none"
         id="path238"
         inkscape:connector-curvature="0" /><path
         d="m 11928.2,6266.8 c -4.7,-542.9 -40.9,-1812.8 -67.6,-1838.6 -282.7,-272.9 -1526.4,74.8 -1592.3,375.5 -65.8,300.6 250.6,3855.4 733.5,3997.3 100.2,29.4 636,-143.8 636,-143.8 0,0 84,-219.8 139.1,-499.9 6.7,-33.9 18.4,-136.2 32.3,-275.7 13.7,-136.1 29.6,-307.8 45.4,-486.2 17.4,-197 34.6,-402.3 48.4,-577 10.2,-131.9 18.7,-246.2 23.6,-326.5 2,-33.1 2.5,-113.9 1.6,-225.1"
         style="fill:#aec3ff;fill-opacity:1;fill-rule:nonzero;stroke:none"
         id="path240"
         inkscape:connector-curvature="0" /><path
         d="m 11121.9,9114.9 c 67.3,-114 318.1,-212.6 422.7,-248.8 -1.2,5.8 -2.4,11.7 -3.5,17.4 -16.9,84.7 -31.5,157.4 -31.5,157.4 l -306.5,135.2 c -67.7,0.9 -109,-14.2 -81.2,-61.2"
         style="fill:#fca56b;fill-opacity:1;fill-rule:nonzero;stroke:none"
         id="path242"
         inkscape:connector-curvature="0" /><path
         d="m 11625.2,9059.5 c 0,0 -493.8,-154 -585,154.9 -91.1,309 -216.3,497.2 95.1,608.6 311.4,111.4 407.7,11.6 463.2,-84.1 55.5,-95.7 152.7,-631.4 26.7,-679.4"
         style="fill:#ffb27d;fill-opacity:1;fill-rule:nonzero;stroke:none"
         id="path244"
         inkscape:connector-curvature="0" /><path
         d="m 11579.1,9768.7 c 0,0 -31.5,-359.5 -105.8,-343.9 -74.3,15.6 -141.8,27.1 -130.9,-81.2 10.9,-108.4 114,-233.5 -115.1,-252.7 -229.2,-19.2 -558.6,571.7 -495.6,683.6 181.6,322.8 1109.9,388 847.4,-5.8"
         style="fill:#163560;fill-opacity:1;fill-rule:nonzero;stroke:none"
         id="path246"
         inkscape:connector-curvature="0" /><path
         d="m 11506.5,8793.2 c -6.4,2.7 -367.5,164.7 -409.8,150.7 -42.2,-13.9 -94.9,-142.9 -94.9,-142.9 l 636,-143.8 c 0,0 -50.1,101.8 -131.3,136"
         style="fill:#9db0f4;fill-opacity:1;fill-rule:nonzero;stroke:none"
         id="path248"
         inkscape:connector-curvature="0" /><path
         d="m 13404.5,8423.8 c 0,368.2 298.4,666.6 666.6,666.6 368.1,0 666.6,-298.4 666.6,-666.6 0,-368.1 -298.5,-666.6 -666.6,-666.6 -368.2,0 -666.6,298.5 -666.6,666.6"
         style="fill:#ffffff;fill-opacity:1;fill-rule:nonzero;stroke:none"
         id="path250"
         inkscape:connector-curvature="0" /><path
         d="m 13597.5,8392 c 0,233.5 189.3,422.8 422.7,422.8 233.5,0 422.8,-189.3 422.8,-422.8 0,-233.5 -189.3,-422.7 -422.8,-422.7 -233.4,0 -422.7,189.2 -422.7,422.7"
         style="fill:#dfebfa;fill-opacity:1;fill-rule:nonzero;stroke:none"
         id="path252"
         inkscape:connector-curvature="0" /><path
         d="m 13294.2,5291.7 c -116.7,0 -232.5,41 -346.2,123 -314.5,226.6 -611.3,756.4 -882.3,1574.7 -201.1,607.1 -282,1093.2 -283.1,1098.6 l -17.1,124.7 c 1.1,-5.4 142.5,-598.8 342.3,-1202.1 183.6,-554.1 482.3,-1272.3 862.8,-1546.5 161.5,-116.3 327.2,-144.7 492.7,-84.5 679.9,247.6 553.1,2467.5 551.8,2489.9 l 45.3,4.4 c 0.3,-5.7 33.9,-575.3 -19.6,-1168.8 -31.5,-349.9 -86.7,-640 -164,-862.3 -98.3,-282.6 -233.2,-456.9 -400.9,-518 -60.6,-22.1 -121.3,-33.1 -181.7,-33.1"
         style="fill:#ffffff;fill-opacity:1;fill-rule:nonzero;stroke:none"
         id="path254"
         inkscape:connector-curvature="0" /><path
         d="m 11374.8,9349 c 0,22 17.9,40 40,40 22.1,0 40,-18 40,-40 0,-22.1 -17.9,-40 -40,-40 -22.1,0 -40,17.9 -40,40"
         style="fill:#ffffff;fill-opacity:1;fill-rule:nonzero;stroke:none"
         id="path256"
         inkscape:connector-curvature="0" /><path
         d="m 11610.3,8702 -16.3,21.3 c 0.6,0.6 49.4,49.9 20.4,186.1 -30,140.9 -207.5,430.7 -209.3,433.6 l 19.4,11.9 c 7.4,-12 181.3,-296 212.2,-440.8 31.7,-148.7 -23.6,-209.2 -26.4,-212.1"
         style="fill:#ffffff;fill-opacity:1;fill-rule:nonzero;stroke:none"
         id="path258"
         inkscape:connector-curvature="0" /><path
         d="m 11854.6,7395.4 c -290.8,92.2 -648.1,593.7 -648.1,593.7 l 602.7,-107.5 c 13.7,-136.1 29.6,-307.8 45.4,-486.2"
         style="fill:#9db0f4;fill-opacity:1;fill-rule:nonzero;stroke:none"
         id="path260"
         inkscape:connector-curvature="0" /><path
         d="m 13856.2,8150.2 c 0,0 -0.9,15.5 13,38.9 7.1,23.7 21.3,93.4 19.5,108.5 -5.8,47.4 29.3,37.8 42.8,-2.1 3,-8.6 2.2,-31.5 4.1,-41.1 46.9,31.7 121.5,65.6 240.3,94 0,0 90.9,25.8 44,-62.7 -31.2,-59.2 -65.9,-65.4 -111.3,-148.1 -45.5,-82.7 -125.4,-137.6 -194.6,-129.5 l -75.5,-22.1 -70.8,114.5 88.5,49.7"
         style="fill:#ffb27d;fill-opacity:1;fill-rule:nonzero;stroke:none"
         id="path262"
         inkscape:connector-curvature="0" /><path
         d="m 11184.7,8521.9 c 0,0 -628.6,-803.8 1303.6,-1041.7 309,-38.1 1403.8,477.6 1403.8,477.6 0,0 -30.4,142.8 -125.1,164 0,0 -1033.4,-109.1 -1112.4,-165.8 -70.1,-50.3 -836.2,512.3 -1065.4,585.1 -229.3,72.9 -404.5,-19.2 -404.5,-19.2"
         style="fill:#aec3ff;fill-opacity:1;fill-rule:nonzero;stroke:none"
         id="path264"
         inkscape:connector-curvature="0" /><path
         d="m 15189.6,1932.1 h -1156.8 c -42.5,0 -78.8,30.1 -86.6,71.8 -29.5,156.4 -78.2,528.2 76.9,717.3 122.3,149 507.3,115.4 787.1,66.9 293.4,-318.6 379.4,-856 379.4,-856"
         style="fill:#ffdabb;fill-opacity:1;fill-rule:nonzero;stroke:none"
         id="path266"
         inkscape:connector-curvature="0" /><path
         d="M 30217.9,1864.8 H 2207.84 c -17.63,0 -32.04,14.4 -32.04,32 v 11.5 c 0,17.6 14.41,32 32.04,32 H 30217.9 c 17.6,0 32,-14.4 32,-32 v -11.5 c 0,-17.6 -14.4,-32 -32,-32"
         style="fill:#2e3552;fill-opacity:1;fill-rule:nonzero;stroke:none"
         id="path268"
         inkscape:connector-curvature="0" /></g></g></svg>